--
-- Copyright 2020, 2022 ÚHÚL
--
-- Licensed under the EUPL, Version 1.2 or – as soon they will be approved by the European Commission - subsequent versions of the EUPL (the "Licence");
-- You may not use this work except in compliance WITH the Licence.
-- You may obtain a copy of the Licence at:
--
-- https://joinup.ec.europa.eu/software/page/eupl
--
-- Unless required by applicable law or agreed to in writing, software distributed under the Licence is distributed on an "AS IS" basis,
-- WITHOUT WARRANTIES OR CONDITIONS OF ANY KIND, either express or implied.
-- See the Licence for the specific language governing permissions and limitations under the Licence.
--
-- DATA DISCLAIMER
-- Any results produced on the basis of openly published Czech National Forest Inventory (CZNFI) sample data
-- do not reflect the true status or changes WITHin any geographical area of the Czech Republic,
-- at, during or between any time occasion(s).
-- In particular, any such results must not be presented or interpreted as an alternative to any information published by CZNFI,
-- be it a past or future CZNFI publication.
--
---------------------------------------------------------------------------------------------------
-- [INSPIRE 25x25km] -- FORESTxDLT-coniferous
-- STEP 1
with
w1 as 	(
		select * from gisdata_test.fn_get_gids4aux_total_app
			(
			107,
			array[48,52,53],
			(select max(id) from gisdata_test.c_gui_version),
			false
			)
		),
w2 as 	(	
		select
		(gisdata_test.fn_get_aux_total_app(config_id,estimation_cell,gid)) as res
		from w1 where step = 1
		order by estimation_cell, gid
		)
insert into gisdata_test.t_aux_total(config,estimation_cell,cell,aux_total,ext_version,gui_version)
select 
	(res).config,
	(res).estimation_cell,
	(res).cell,
	(res).aux_total,
	(res).ext_version,
	(select max(id) from gisdata_test.c_gui_version) as gui_version
from
	w2 order by (res).cell
;
-- STEP 2
with
w1 as 	(
		select * from gisdata_test.fn_get_gids4aux_total_app
			(
			107,
			array[48,52],
			(select max(id) from gisdata_test.c_gui_version),
			false
			)
		),
w2 as 	(
		select
		(gisdata_test.fn_get_aux_total4estimation_cell_app(config_id,estimation_cell,gid,false)) as res
		from w1 where step = 2 order by estimation_cell
		)
insert into gisdata_test.t_aux_total(config,estimation_cell,cell,aux_total,ext_version,gui_version)
select 
	(res).config,
	(res).estimation_cell,
	(res).cell,
	(res).aux_total,
	(res).ext_version,
	(select max(id) from gisdata_test.c_gui_version) as gui_version
from
	w2 order by (res).estimation_cell
;
-------------------------------------------------
-- [INSPIRE 25x25km] -- FORESTxDLT-broadleaves
-- STEP 1
with
w1 as 	(
		select * from gisdata_test.fn_get_gids4aux_total_app
			(
			108,
			array[48,52,53],
			(select max(id) from gisdata_test.c_gui_version),
			false
			)
		),
w2 as 	(	
		select
		(gisdata_test.fn_get_aux_total_app(config_id,estimation_cell,gid)) as res
		from w1 where step = 1
		order by estimation_cell, gid
		)
insert into gisdata_test.t_aux_total(config,estimation_cell,cell,aux_total,ext_version,gui_version)
select 
	(res).config,
	(res).estimation_cell,
	(res).cell,
	(res).aux_total,
	(res).ext_version,
	(select max(id) from gisdata_test.c_gui_version) as gui_version
from
	w2 order by (res).cell
;
-- STEP 2
with
w1 as 	(
		select * from gisdata_test.fn_get_gids4aux_total_app
			(
			108,
			array[48,52],
			(select max(id) from gisdata_test.c_gui_version),
			false
			)
		),
w2 as 	(
		select
		(gisdata_test.fn_get_aux_total4estimation_cell_app(config_id,estimation_cell,gid,false)) as res
		from w1 where step = 2 order by estimation_cell
		)
insert into gisdata_test.t_aux_total(config,estimation_cell,cell,aux_total,ext_version,gui_version)
select 
	(res).config,
	(res).estimation_cell,
	(res).cell,
	(res).aux_total,
	(res).ext_version,
	(select max(id) from gisdata_test.c_gui_version) as gui_version
from
	w2 order by (res).estimation_cell
;
-------------------------------------------------
-- [INSPIRE 25x25km] --FORESTxDLT-others
with
w1 as 	(
		select * from gisdata_test.fn_get_gids4aux_total_app
			(
			109,
			array[48,52,53],
			(select max(id) from gisdata_test.c_gui_version),
			false
			)
		),
w2 as 	(	
		select
		(gisdata_test.fn_get_aux_total_app(config_id,estimation_cell,gid)) as res
		from w1 where step = 2
		order by estimation_cell, gid
		)
insert into gisdata_test.t_aux_total(config,estimation_cell,cell,aux_total,ext_version,gui_version)
select 
	(res).config,
	(res).estimation_cell,
	(res).cell,
	(res).aux_total,
	(res).ext_version,
	(select max(id) from gisdata_test.c_gui_version) as gui_version
from
	w2 order by (res).cell
;
-------------------------------------------------
-- [INSPIRE 25x25km] -- NON-FORESTxDLT-coniferous
-- STEP 2
with
w1 as 	(
		select * from gisdata_test.fn_get_gids4aux_total_app
			(
			110,
			array[48,52,53],
			(select max(id) from gisdata_test.c_gui_version),
			false
			)
		),
w2 as 	(	
		select
		(gisdata_test.fn_get_aux_total_app(config_id,estimation_cell,gid)) as res
		from w1 where step = 2
		order by estimation_cell, gid
		)
insert into gisdata_test.t_aux_total(config,estimation_cell,cell,aux_total,ext_version,gui_version)
select 
	(res).config,
	(res).estimation_cell,
	(res).cell,
	(res).aux_total,
	(res).ext_version,
	(select max(id) from gisdata_test.c_gui_version) as gui_version
from
	w2 order by (res).cell
;
-------------------------------------------------
-- [INSPIRE 25x25km] -- NON-FORESTxDLT-broadleaves
-- STEP 2
with
w1 as 	(
		select * from gisdata_test.fn_get_gids4aux_total_app
			(
			111,
			array[48,52,53],
			(select max(id) from gisdata_test.c_gui_version),
			false
			)
		),
w2 as 	(	
		select
		(gisdata_test.fn_get_aux_total_app(config_id,estimation_cell,gid)) as res
		from w1 where step = 2
		order by estimation_cell, gid
		)
insert into gisdata_test.t_aux_total(config,estimation_cell,cell,aux_total,ext_version,gui_version)
select 
	(res).config,
	(res).estimation_cell,
	(res).cell,
	(res).aux_total,
	(res).ext_version,
	(select max(id) from gisdata_test.c_gui_version) as gui_version
from
	w2 order by (res).cell
;
-------------------------------------------------
-- [INSPIRE 25x25km] --NON-FORESTxDLT-others
-- STEP 2
with
w1 as 	(
		select * from gisdata_test.fn_get_gids4aux_total_app
			(
			112,
			array[48,52,53],
			(select max(id) from gisdata_test.c_gui_version),
			false
			)
		),
w2 as 	(	
		select
		(gisdata_test.fn_get_aux_total_app(config_id,estimation_cell,gid)) as res
		from w1 where step = 2
		order by estimation_cell, gid
		)
insert into gisdata_test.t_aux_total(config,estimation_cell,cell,aux_total,ext_version,gui_version)
select 
	(res).config,
	(res).estimation_cell,
	(res).cell,
	(res).aux_total,
	(res).ext_version,
	(select max(id) from gisdata_test.c_gui_version) as gui_version
from
	w2 order by (res).cell
;
-------------------------------------------------
-- [INSPIRE 50x50km] -- FORESTxDLT-coniferous
with
w1 as 	(
		select * from gisdata_test.fn_get_gids4aux_total_app
			(
			107,
			array[21],
			(select max(id) from gisdata_test.c_gui_version),
			false
			)
		),
w2 as 	(
		select
		(gisdata_test.fn_get_aux_total4estimation_cell_app(config_id,estimation_cell,gid,false)) as res
		from w1 order by estimation_cell
		)
insert into gisdata_test.t_aux_total(config,estimation_cell,cell,aux_total,ext_version,gui_version)
select 
	(res).config,
	(res).estimation_cell,
	(res).cell,
	(res).aux_total,
	(res).ext_version,
	(select max(id) from gisdata_test.c_gui_version) as gui_version
from
	w2 order by (res).estimation_cell
;
-------------------------------------------------
-- [INSPIRE 50x50km] -- FORESTxDLT-broadleaves
with
w1 as 	(
		select * from gisdata_test.fn_get_gids4aux_total_app
			(
			108,
			array[21],
			(select max(id) from gisdata_test.c_gui_version),
			false
			)
		),
w2 as 	(
		select
		(gisdata_test.fn_get_aux_total4estimation_cell_app(config_id,estimation_cell,gid,false)) as res
		from w1 order by estimation_cell
		)
insert into gisdata_test.t_aux_total(config,estimation_cell,cell,aux_total,ext_version,gui_version)
select 
	(res).config,
	(res).estimation_cell,
	(res).cell,
	(res).aux_total,
	(res).ext_version,
	(select max(id) from gisdata_test.c_gui_version) as gui_version
from
	w2 order by (res).estimation_cell
;
-------------------------------------------------
-- [INSPIRE 50x50km] -- FORESTxDLT-others
with
w1 as 	(
		select * from gisdata_test.fn_get_gids4aux_total_app
			(
			109,
			array[21],
			(select max(id) from gisdata_test.c_gui_version),
			false
			)
		),
w2 as 	(	
		select
		(gisdata_test.fn_get_aux_total_app(config_id,estimation_cell,gid)) as res
		from w1 where step = 2
		order by estimation_cell, gid
		)
insert into gisdata_test.t_aux_total(config,estimation_cell,cell,aux_total,ext_version,gui_version)
select 
	(res).config,
	(res).estimation_cell,
	(res).cell,
	(res).aux_total,
	(res).ext_version,
	(select max(id) from gisdata_test.c_gui_version) as gui_version
from
	w2 order by (res).estimation_cell
;
-------------------------------------------------
-- [INSPIRE 50x50km] -- NON-FORESTxDLT-coniferous
with
w1 as 	(
		select * from gisdata_test.fn_get_gids4aux_total_app
			(
			110,
			array[21],
			(select max(id) from gisdata_test.c_gui_version),
			false
			)
		),
w2 as 	(	
		select
		(gisdata_test.fn_get_aux_total_app(config_id,estimation_cell,gid)) as res
		from w1 where step = 2
		order by estimation_cell, gid
		)
insert into gisdata_test.t_aux_total(config,estimation_cell,cell,aux_total,ext_version,gui_version)
select 
	(res).config,
	(res).estimation_cell,
	(res).cell,
	(res).aux_total,
	(res).ext_version,
	(select max(id) from gisdata_test.c_gui_version) as gui_version
from
	w2 order by (res).estimation_cell
;
-------------------------------------------------
-- [INSPIRE 50x50km] -- NON-FORESTxDLT-broadleaves
with
w1 as 	(
		select * from gisdata_test.fn_get_gids4aux_total_app
			(
			111,
			array[21],
			(select max(id) from gisdata_test.c_gui_version),
			false
			)
		),
w2 as 	(	
		select
		(gisdata_test.fn_get_aux_total_app(config_id,estimation_cell,gid)) as res
		from w1 where step = 2
		order by estimation_cell, gid
		)
insert into gisdata_test.t_aux_total(config,estimation_cell,cell,aux_total,ext_version,gui_version)
select 
	(res).config,
	(res).estimation_cell,
	(res).cell,
	(res).aux_total,
	(res).ext_version,
	(select max(id) from gisdata_test.c_gui_version) as gui_version
from
	w2 order by (res).estimation_cell
;
-------------------------------------------------
-- [INSPIRE 50x50km] -- NON-FORESTxDLT-others
with
w1 as 	(
		select * from gisdata_test.fn_get_gids4aux_total_app
			(
			112,
			array[21],
			(select max(id) from gisdata_test.c_gui_version),
			false
			)
		),
w2 as 	(	
		select
		(gisdata_test.fn_get_aux_total_app(config_id,estimation_cell,gid)) as res
		from w1 where step = 2
		order by estimation_cell, gid
		)
insert into gisdata_test.t_aux_total(config,estimation_cell,cell,aux_total,ext_version,gui_version)
select 
	(res).config,
	(res).estimation_cell,
	(res).cell,
	(res).aux_total,
	(res).ext_version,
	(select max(id) from gisdata_test.c_gui_version) as gui_version
from
	w2 order by (res).estimation_cell
;
-------------------------------------------------
-- CHECK
WITH
w1 AS	(
		SELECT config, estimation_cell, aux_total
		FROM gisdata_test.t_aux_total
		WHERE estimation_cell IN (SELECT id FROM gisdata_test.c_estimation_cell)
		and config in (107,108,109,110,111,112)
		)
SELECT
	c_estimation_cell.label AS estimation_cell_label,
	t_config.label AS area_domain_category,
	round(w1.aux_total::numeric,6) AS aux_total
FROM w1
INNER JOIN gisdata_test.t_config ON w1.config = t_config.id
INNER JOIN gisdata_test.c_estimation_cell ON w1.estimation_cell = c_estimation_cell.id
ORDER BY estimation_cell_label, area_domain_category
;
 estimation_cell_label |                area_domain_category                |  aux_total   
-----------------------+----------------------------------------------------+--------------
 25kmE4650N2950        | OLIL-2013-forest x dlt_2012_100m - broadleaves     |  3879.067813
 25kmE4650N2950        | OLIL-2013-forest x dlt_2012_100m - coniferous      |  2051.177307
 25kmE4650N2950        | OLIL-2013-forest x dlt_2012_100m - others          |  1913.530797
 25kmE4650N2950        | OLIL-2013-non-forest x dlt_2012_100m - broadleaves |   277.795318
 25kmE4650N2950        | OLIL-2013-non-forest x dlt_2012_100m - coniferous  |  1457.971747
 25kmE4650N2950        | OLIL-2013-non-forest x dlt_2012_100m - others      | 17902.438623
 25kmE4675N2950        | OLIL-2013-forest x dlt_2012_100m - broadleaves     |  6594.163435
 25kmE4675N2950        | OLIL-2013-forest x dlt_2012_100m - coniferous      |  2347.792572
 25kmE4675N2950        | OLIL-2013-forest x dlt_2012_100m - others          |  2237.961904
 25kmE4675N2950        | OLIL-2013-non-forest x dlt_2012_100m - broadleaves |   497.617502
 25kmE4675N2950        | OLIL-2013-non-forest x dlt_2012_100m - coniferous  |  1235.974204
 25kmE4675N2950        | OLIL-2013-non-forest x dlt_2012_100m - others      | 20931.958666
 25kmE4675N2975        | OLIL-2013-forest x dlt_2012_100m - broadleaves     |  4532.087488
 25kmE4675N2975        | OLIL-2013-forest x dlt_2012_100m - coniferous      |  1806.102437
 25kmE4675N2975        | OLIL-2013-forest x dlt_2012_100m - others          |  1366.361150
 25kmE4675N2975        | OLIL-2013-non-forest x dlt_2012_100m - broadleaves |    91.671544
 25kmE4675N2975        | OLIL-2013-non-forest x dlt_2012_100m - coniferous  |   372.874527
 25kmE4675N2975        | OLIL-2013-non-forest x dlt_2012_100m - others      |  7904.688140
 50kmE465N295          | OLIL-2013-forest x dlt_2012_100m - broadleaves     | 15005.318737
 50kmE465N295          | OLIL-2013-forest x dlt_2012_100m - coniferous      |  6205.072316
 50kmE465N295          | OLIL-2013-forest x dlt_2012_100m - others          |  5517.853851
 50kmE465N295          | OLIL-2013-non-forest x dlt_2012_100m - broadleaves |   867.084364
 50kmE465N295          | OLIL-2013-non-forest x dlt_2012_100m - coniferous  |  3066.820479
 50kmE465N295          | OLIL-2013-non-forest x dlt_2012_100m - others      | 46739.085428
(24 rows)

---------------------------------------------------------------------------------------------------
---------------------------------------------------------------------------------------------------
